Logic_fall2016/final_Project/main.vcd
$date
	Tue Jan 17 08:53:17 2017
$end
$version
	Icarus Verilog
$end
$timescale
	1ns
$end
$scope module tstb_autoplusmodule $end
$var wire 4 ! B_Time_L [3:0] $end
$var wire 4 " B_Time_H [3:0] $end
$var wire 1 # B_Light $end
$var wire 4 $ A_Time_L [3:0] $end
$var wire 4 % A_Time_H [3:0] $end
$var wire 1 & A_Light $end
$var reg 1 ' A $end
$var reg 1 ( A_Traffic $end
$var reg 1 ) B $end
$var reg 1 * B_Traffic $end
$var reg 1 + CLK $end
$var reg 1 , R $end
$scope module finally $end
$var wire 1 ' A $end
$var wire 4 - A_Time_H [3:0] $end
$var wire 4 . A_Time_L [3:0] $end
$var wire 1 ( A_Traffic $end
$var wire 1 ) B $end
$var wire 4 / B_Time_H [3:0] $end
$var wire 4 0 B_Time_L [3:0] $end
$var wire 1 * B_Traffic $end
$var wire 1 + CLK $end
$var wire 1 , R $end
$var wire 1 1 lcount $end
$var wire 1 2 timeout $end
$var wire 1 3 manual $end
$var wire 1 4 ltrg $end
$var wire 4 5 lmsb [3:0] $end
$var wire 4 6 llsb [3:0] $end
$var wire 4 7 bcdmsb [3:0] $end
$var wire 4 8 bcdlsb [3:0] $end
$var wire 1 9 M_B $end
$var wire 1 : M_A $end
$var wire 1 # B_Light $end
$var wire 1 & A_Light $end
$var wire 1 ; A_B $end
$var wire 1 < A_A $end
$var reg 1 = cntto $end
$var reg 1 > mcount $end
$scope module automodule $end
$var wire 1 + CLK $end
$var wire 1 , reset $end
$var wire 1 2 timeout $end
$var reg 1 < lightA $end
$var reg 1 ; lightB $end
$var reg 4 ? load_lsb [3:0] $end
$var reg 4 @ load_msb [3:0] $end
$var reg 1 4 load_trg $end
$var reg 2 A state [1:0] $end
$var reg 2 B timeOutDelayed [1:0] $end
$upscope $end
$scope module lsbbcdmodule $end
$var wire 1 + clk $end
$var wire 1 1 count $end
$var wire 4 C load [3:0] $end
$var wire 1 4 loadtrg $end
$var reg 4 D bcdOut [3:0] $end
$upscope $end
$scope module manlmodule $end
$var wire 1 ' A $end
$var wire 1 ) B $end
$var wire 1 + CLK $end
$var wire 1 , R $end
$var reg 1 : AL $end
$var reg 1 9 BL $end
$var reg 1 3 M $end
$upscope $end
$scope module msbbcdmodule $end
$var wire 1 + clk $end
$var wire 1 > count $end
$var wire 4 E load [3:0] $end
$var wire 1 4 loadtrg $end
$var reg 4 F bcdOut [3:0] $end
$upscope $end
$scope module notrf $end
$var wire 1 ( AisEmpty $end
$var wire 1 * BisEmpty $end
$var wire 1 + clk $end
$var wire 1 # BisGreen $end
$var wire 1 & AisGreen $end
$var reg 3 G emptiness [2:0] $end
$var reg 1 H timeout $end
$upscope $end
$scope module outmodule $end
$var wire 1 < A_A $end
$var wire 1 ; A_B $end
$var wire 1 + CLK $end
$var wire 1 : M_A $end
$var wire 1 9 M_B $end
$var wire 1 3 S $end
$var reg 1 & A $end
$var reg 1 # B $end
$upscope $end
$upscope $end
$upscope $end
$enddefinitions $end
#0
$dumpvars
xH
bx G
bx F
bx E
bx D
bx C
b1 B
b0 A
bx @
bx ?
0>
0=
x<
x;
0:
09
bx 8
bx 7
bx 6
bx 5
14
03
x2
11
bx 0
bx /
bx .
bx -
1,
1+
0*
0)
0(
0'
x&
bx %
bx $
x#
bx "
bx !
$end
#10000000
b0 G
#20000000
02
0H
#500000000
0+
#1000000000
b10 B
1+
#1010000000
b0 6
b0 ?
b0 C
#1020000000
b1001 5
b1001 @
b1001 E
#1030000000
1<
#1040000000
0;
#1050000000
b1 B
0,
#1500000000
0+
#2000000000
0#
1&
b10 B
1+
#2010000000
b1001 "
b1001 /
b1001 %
b1001 -
b1001 7
b1001 F
b0 !
b0 0
b0 $
b0 .
b0 8
b0 D
04
#2500000000
0+
#3000000000
b0 B
1+
#3010000000
b1001 !
b1001 0
b1001 $
b1001 .
b1001 8
b1001 D
b1000 "
b1000 /
b1000 %
b1000 -
b1000 7
b1000 F
#3500000000
0+
#4000000000
1+
#4010000000
b111 "
b111 /
b111 %
b111 -
b111 7
b111 F
b1000 !
b1000 0
b1000 $
b1000 .
b1000 8
b1000 D
#4500000000
0+
#5000000000
1+
#5010000000
b111 !
b111 0
b111 $
b111 .
b111 8
b111 D
b110 "
b110 /
b110 %
b110 -
b110 7
b110 F
#5500000000
0+
#6000000000
1+
#6010000000
b101 "
b101 /
b101 %
b101 -
b101 7
b101 F
b110 !
b110 0
b110 $
b110 .
b110 8
b110 D
#6500000000
0+
#7000000000
1+
#7010000000
b101 !
b101 0
b101 $
b101 .
b101 8
b101 D
b100 "
b100 /
b100 %
b100 -
b100 7
b100 F
#7500000000
0+
#8000000000
1+
#8010000000
b11 "
b11 /
b11 %
b11 -
b11 7
b11 F
b100 !
b100 0
b100 $
b100 .
b100 8
b100 D
#8500000000
0+
#9000000000
1+
#9010000000
b11 !
b11 0
b11 $
b11 .
b11 8
b11 D
b10 "
b10 /
b10 %
b10 -
b10 7
b10 F
#9500000000
0+
#10000000000
1+
#10010000000
b1 "
b1 /
b1 %
b1 -
b1 7
b1 F
b10 !
b10 0
b10 $
b10 .
b10 8
b10 D
#10500000000
0+
#11000000000
1+
#11010000000
b1 !
b1 0
b1 $
b1 .
b1 8
b1 D
b0 "
b0 /
b0 %
b0 -
b0 7
b0 F
#11500000000
0+
#12000000000
1+
#12010000000
b1001 "
b1001 /
b1001 %
b1001 -
b1001 7
b1001 F
b0 !
b0 0
b0 $
b0 .
b0 8
b0 D
#12500000000
0+
#13000000000
1+
#13010000000
b1001 !
b1001 0
b1001 $
b1001 .
b1001 8
b1001 D
b1000 "
b1000 /
b1000 %
b1000 -
b1000 7
b1000 F
#13500000000
0+
#14000000000
1+
#14010000000
b111 "
b111 /
b111 %
b111 -
b111 7
b111 F
b1000 !
b1000 0
b1000 $
b1000 .
b1000 8
b1000 D
#14500000000
0+
#15000000000
1+
#15010000000
b111 !
b111 0
b111 $
b111 .
b111 8
b111 D
b110 "
b110 /
b110 %
b110 -
b110 7
b110 F
#15500000000
0+
#16000000000
1+
#16010000000
b101 "
b101 /
b101 %
b101 -
b101 7
b101 F
b110 !
b110 0
b110 $
b110 .
b110 8
b110 D
#16500000000
0+
#17000000000
1+
#17010000000
b101 !
b101 0
b101 $
b101 .
b101 8
b101 D
b100 "
b100 /
b100 %
b100 -
b100 7
b100 F
#17500000000
0+
#18000000000
1+
#18010000000
b11 "
b11 /
b11 %
b11 -
b11 7
b11 F
b100 !
b100 0
b100 $
b100 .
b100 8
b100 D
#18500000000
0+
#19000000000
1+
#19010000000
b11 !
b11 0
b11 $
b11 .
b11 8
b11 D
b10 "
b10 /
b10 %
b10 -
b10 7
b10 F
#19500000000
0+
#20000000000
1+
#20010000000
b1 "
b1 /
b1 %
b1 -
b1 7
b1 F
b10 !
b10 0
b10 $
b10 .
b10 8
b10 D
#20500000000
0+
#21000000000
1+
#21010000000
b1 !
b1 0
b1 $
b1 .
b1 8
b1 D
b0 "
b0 /
b0 %
b0 -
b0 7
b0 F
#21500000000
0+
#22000000000
1+
#22010000000
b1001 "
b1001 /
b1001 %
b1001 -
b1001 7
b1001 F
b0 !
b0 0
b0 $
b0 .
b0 8
b0 D
#22500000000
0+
#23000000000
1+
#23010000000
b1001 !
b1001 0
b1001 $
b1001 .
b1001 8
b1001 D
b1000 "
b1000 /
b1000 %
b1000 -
b1000 7
b1000 F
#23500000000
0+
#24000000000
1+
#24010000000
b111 "
b111 /
b111 %
b111 -
b111 7
b111 F
b1000 !
b1000 0
b1000 $
b1000 .
b1000 8
b1000 D
#24500000000
0+
#25000000000
1+
#25010000000
b111 !
b111 0
b111 $
b111 .
b111 8
b111 D
b110 "
b110 /
b110 %
b110 -
b110 7
b110 F
#25500000000
0+
#26000000000
1+
#26010000000
b101 "
b101 /
b101 %
b101 -
b101 7
b101 F
b110 !
b110 0
b110 $
b110 .
b110 8
b110 D
#26500000000
0+
#27000000000
1+
#27010000000
b101 !
b101 0
b101 $
b101 .
b101 8
b101 D
b100 "
b100 /
b100 %
b100 -
b100 7
b100 F
#27500000000
0+
#28000000000
1+
#28010000000
b11 "
b11 /
b11 %
b11 -
b11 7
b11 F
b100 !
b100 0
b100 $
b100 .
b100 8
b100 D
#28500000000
0+
#29000000000
1+
#29010000000
b11 !
b11 0
b11 $
b11 .
b11 8
b11 D
b10 "
b10 /
b10 %
b10 -
b10 7
b10 F
#29500000000
0+
#30000000000
1+
#30010000000
b1 "
b1 /
b1 %
b1 -
b1 7
b1 F
b10 !
b10 0
b10 $
b10 .
b10 8
b10 D
#30500000000
0+
#31000000000
1+
#31010000000
b1 !
b1 0
b1 $
b1 .
b1 8
b1 D
b0 "
b0 /
b0 %
b0 -
b0 7
b0 F
#31500000000
0+
#32000000000
1+
#32010000000
b1001 "
b1001 /
b1001 %
b1001 -
b1001 7
b1001 F
b0 !
b0 0
b0 $
b0 .
b0 8
b0 D
#32500000000
0+
#33000000000
1+
#33010000000
b1001 !
b1001 0
b1001 $
b1001 .
b1001 8
b1001 D
b1000 "
b1000 /
b1000 %
b1000 -
b1000 7
b1000 F
#33500000000
0+
#34000000000
1+
#34010000000
b111 "
b111 /
b111 %
b111 -
b111 7
b111 F
b1000 !
b1000 0
b1000 $
b1000 .
b1000 8
b1000 D
#34500000000
0+
#35000000000
1+
#35010000000
b111 !
b111 0
b111 $
b111 .
b111 8
b111 D
b110 "
b110 /
b110 %
b110 -
b110 7
b110 F
#35500000000
0+
#36000000000
1+
#36010000000
b101 "
b101 /
b101 %
b101 -
b101 7
b101 F
b110 !
b110 0
b110 $
b110 .
b110 8
b110 D
#36500000000
0+
#37000000000
1+
#37010000000
b101 !
b101 0
b101 $
b101 .
b101 8
b101 D
b100 "
b100 /
b100 %
b100 -
b100 7
b100 F
#37500000000
0+
#38000000000
1+
#38010000000
b11 "
b11 /
b11 %
b11 -
b11 7
b11 F
b100 !
b100 0
b100 $
b100 .
b100 8
b100 D
#38500000000
0+
#39000000000
1+
#39010000000
b11 !
b11 0
b11 $
b11 .
b11 8
b11 D
b10 "
b10 /
b10 %
b10 -
b10 7
b10 F
#39500000000
0+
#40000000000
1+
#40010000000
b1 "
b1 /
b1 %
b1 -
b1 7
b1 F
b10 !
b10 0
b10 $
b10 .
b10 8
b10 D
#40500000000
0+
#41000000000
1+
#41010000000
b1 !
b1 0
b1 $
b1 .
b1 8
b1 D
b0 "
b0 /
b0 %
b0 -
b0 7
b0 F
#41500000000
0+
#42000000000
1+
#42010000000
b1001 "
b1001 /
b1001 %
b1001 -
b1001 7
b1001 F
b0 !
b0 0
b0 $
b0 .
b0 8
b0 D
#42500000000
0+
#43000000000
1+
#43010000000
b1001 !
b1001 0
b1001 $
b1001 .
b1001 8
b1001 D
b1000 "
b1000 /
b1000 %
b1000 -
b1000 7
b1000 F
#43500000000
0+
#44000000000
1+
#44010000000
b111 "
b111 /
b111 %
b111 -
b111 7
b111 F
b1000 !
b1000 0
b1000 $
b1000 .
b1000 8
b1000 D
#44500000000
0+
#45000000000
1+
#45010000000
b111 !
b111 0
b111 $
b111 .
b111 8
b111 D
b110 "
b110 /
b110 %
b110 -
b110 7
b110 F
#45500000000
0+
#46000000000
1+
#46010000000
b101 "
b101 /
b101 %
b101 -
b101 7
b101 F
b110 !
b110 0
b110 $
b110 .
b110 8
b110 D
#46500000000
0+
#47000000000
1+
#47010000000
b101 !
b101 0
b101 $
b101 .
b101 8
b101 D
b100 "
b100 /
b100 %
b100 -
b100 7
b100 F
#47500000000
0+
#48000000000
1+
#48010000000
b11 "
b11 /
b11 %
b11 -
b11 7
b11 F
b100 !
b100 0
b100 $
b100 .
b100 8
b100 D
#48500000000
0+
#49000000000
1+
#49010000000
b11 !
b11 0
b11 $
b11 .
b11 8
b11 D
b10 "
b10 /
b10 %
b10 -
b10 7
b10 F
#49500000000
0+
#50000000000
1+
#50010000000
b1 "
b1 /
b1 %
b1 -
b1 7
b1 F
b10 !
b10 0
b10 $
b10 .
b10 8
b10 D
#50500000000
0+
#51000000000
1+
#51010000000
b1 !
b1 0
b1 $
b1 .
b1 8
b1 D
b0 "
b0 /
b0 %
b0 -
b0 7
b0 F
#51500000000
0+
#52000000000
1+
#52010000000
b1001 "
b1001 /
b1001 %
b1001 -
b1001 7
b1001 F
b0 !
b0 0
b0 $
b0 .
b0 8
b0 D
#52500000000
0+
#53000000000
1+
#53010000000
b1001 !
b1001 0
b1001 $
b1001 .
b1001 8
b1001 D
b1000 "
b1000 /
b1000 %
b1000 -
b1000 7
b1000 F
#53500000000
0+
#54000000000
1+
#54010000000
b111 "
b111 /
b111 %
b111 -
b111 7
b111 F
b1000 !
b1000 0
b1000 $
b1000 .
b1000 8
b1000 D
#54500000000
0+
#55000000000
1+
#55010000000
b111 !
b111 0
b111 $
b111 .
b111 8
b111 D
b110 "
b110 /
b110 %
b110 -
b110 7
b110 F
#55500000000
0+
#56000000000
1+
#56010000000
b101 "
b101 /
b101 %
b101 -
b101 7
b101 F
b110 !
b110 0
b110 $
b110 .
b110 8
b110 D
#56500000000
0+
#57000000000
1+
#57010000000
b101 !
b101 0
b101 $
b101 .
b101 8
b101 D
b100 "
b100 /
b100 %
b100 -
b100 7
b100 F
#57500000000
0+
#58000000000
1+
#58010000000
b11 "
b11 /
b11 %
b11 -
b11 7
b11 F
b100 !
b100 0
b100 $
b100 .
b100 8
b100 D
#58500000000
0+
#59000000000
1+
#59010000000
b11 !
b11 0
b11 $
b11 .
b11 8
b11 D
b10 "
b10 /
b10 %
b10 -
b10 7
b10 F
#59500000000
0+
#60000000000
1+
#60010000000
b1 "
b1 /
b1 %
b1 -
b1 7
b1 F
b10 !
b10 0
b10 $
b10 .
b10 8
b10 D
#60500000000
0+
#61000000000
1+
#61010000000
b1 !
b1 0
b1 $
b1 .
b1 8
b1 D
b0 "
b0 /
b0 %
b0 -
b0 7
b0 F
#61500000000
0+
#62000000000
1+
#62010000000
b1001 "
b1001 /
b1001 %
b1001 -
b1001 7
b1001 F
b0 !
b0 0
b0 $
b0 .
b0 8
b0 D
#62500000000
0+
#63000000000
1+
#63010000000
b1001 !
b1001 0
b1001 $
b1001 .
b1001 8
b1001 D
b1000 "
b1000 /
b1000 %
b1000 -
b1000 7
b1000 F
#63500000000
0+
#64000000000
1+
#64010000000
b111 "
b111 /
b111 %
b111 -
b111 7
b111 F
b1000 !
b1000 0
b1000 $
b1000 .
b1000 8
b1000 D
#64500000000
0+
#65000000000
1+
#65010000000
b111 !
b111 0
b111 $
b111 .
b111 8
b111 D
b110 "
b110 /
b110 %
b110 -
b110 7
b110 F
#65500000000
0+
#66000000000
1+
#66010000000
b101 "
b101 /
b101 %
b101 -
b101 7
b101 F
b110 !
b110 0
b110 $
b110 .
b110 8
b110 D
#66500000000
0+
#67000000000
1+
#67010000000
b101 !
b101 0
b101 $
b101 .
b101 8
b101 D
b100 "
b100 /
b100 %
b100 -
b100 7
b100 F
#67500000000
0+
#68000000000
1+
#68010000000
b11 "
b11 /
b11 %
b11 -
b11 7
b11 F
b100 !
b100 0
b100 $
b100 .
b100 8
b100 D
#68500000000
0+
#69000000000
1+
#69010000000
b11 !
b11 0
b11 $
b11 .
b11 8
b11 D
b10 "
b10 /
b10 %
b10 -
b10 7
b10 F
#69500000000
0+
#70000000000
1+
#70010000000
b1 "
b1 /
b1 %
b1 -
b1 7
b1 F
b10 !
b10 0
b10 $
b10 .
b10 8
b10 D
#70500000000
0+
#71000000000
1+
#71010000000
b1 !
b1 0
b1 $
b1 .
b1 8
b1 D
b0 "
b0 /
b0 %
b0 -
b0 7
b0 F
#71500000000
0+
#72000000000
1+
#72010000000
b1001 "
b1001 /
b1001 %
b1001 -
b1001 7
b1001 F
b0 !
b0 0
b0 $
b0 .
b0 8
b0 D
#72500000000
0+
#73000000000
1+
#73010000000
b1001 !
b1001 0
b1001 $
b1001 .
b1001 8
b1001 D
b1000 "
b1000 /
b1000 %
b1000 -
b1000 7
b1000 F
#73500000000
0+
#74000000000
1+
#74010000000
b111 "
b111 /
b111 %
b111 -
b111 7
b111 F
b1000 !
b1000 0
b1000 $
b1000 .
b1000 8
b1000 D
#74500000000
0+
#75000000000
1+
#75010000000
b111 !
b111 0
b111 $
b111 .
b111 8
b111 D
b110 "
b110 /
b110 %
b110 -
b110 7
b110 F
#75500000000
0+
#76000000000
1+
#76010000000
b101 "
b101 /
b101 %
b101 -
b101 7
b101 F
b110 !
b110 0
b110 $
b110 .
b110 8
b110 D
#76500000000
0+
#77000000000
1+
#77010000000
b101 !
b101 0
b101 $
b101 .
b101 8
b101 D
b100 "
b100 /
b100 %
b100 -
b100 7
b100 F
#77500000000
0+
#78000000000
1+
#78010000000
b11 "
b11 /
b11 %
b11 -
b11 7
b11 F
b100 !
b100 0
b100 $
b100 .
b100 8
b100 D
#78500000000
0+
#79000000000
1+
#79010000000
b11 !
b11 0
b11 $
b11 .
b11 8
b11 D
b10 "
b10 /
b10 %
b10 -
b10 7
b10 F
#79500000000
0+
#80000000000
1+
#80010000000
b1 "
b1 /
b1 %
b1 -
b1 7
b1 F
b10 !
b10 0
b10 $
b10 .
b10 8
b10 D
#80500000000
0+
#81000000000
1+
#81010000000
b1 !
b1 0
b1 $
b1 .
b1 8
b1 D
b0 "
b0 /
b0 %
b0 -
b0 7
b0 F
#81500000000
0+
#82000000000
1+
#82010000000
b1001 "
b1001 /
b1001 %
b1001 -
b1001 7
b1001 F
b0 !
b0 0
b0 $
b0 .
b0 8
b0 D
#82500000000
0+
#83000000000
1+
#83010000000
b1001 !
b1001 0
b1001 $
b1001 .
b1001 8
b1001 D
b1000 "
b1000 /
b1000 %
b1000 -
b1000 7
b1000 F
#83500000000
0+
#84000000000
1+
#84010000000
b111 "
b111 /
b111 %
b111 -
b111 7
b111 F
b1000 !
b1000 0
b1000 $
b1000 .
b1000 8
b1000 D
#84500000000
0+
#85000000000
1+
#85010000000
b111 !
b111 0
b111 $
b111 .
b111 8
b111 D
b110 "
b110 /
b110 %
b110 -
b110 7
b110 F
#85500000000
0+
#86000000000
1+
#86010000000
b101 "
b101 /
b101 %
b101 -
b101 7
b101 F
b110 !
b110 0
b110 $
b110 .
b110 8
b110 D
#86500000000
0+
#87000000000
1+
#87010000000
b101 !
b101 0
b101 $
b101 .
b101 8
b101 D
b100 "
b100 /
b100 %
b100 -
b100 7
b100 F
#87500000000
0+
#88000000000
1+
#88010000000
b11 "
b11 /
b11 %
b11 -
b11 7
b11 F
b100 !
b100 0
b100 $
b100 .
b100 8
b100 D
#88500000000
0+
#89000000000
1+
#89010000000
b11 !
b11 0
b11 $
b11 .
b11 8
b11 D
b10 "
b10 /
b10 %
b10 -
b10 7
b10 F
#89500000000
0+
#90000000000
1+
#90010000000
b1 "
b1 /
b1 %
b1 -
b1 7
b1 F
b10 !
b10 0
b10 $
b10 .
b10 8
b10 D
#90500000000
0+
#91000000000
1+
#91010000000
b1 !
b1 0
b1 $
b1 .
b1 8
b1 D
b0 "
b0 /
b0 %
b0 -
b0 7
b0 F
#91500000000
0+
#92000000000
1+
#92010000000
b1001 "
b1001 /
b1001 %
b1001 -
b1001 7
b1001 F
b0 !
b0 0
b0 $
b0 .
b0 8
b0 D
#92500000000
0+
#93000000000
1+
#93010000000
b1001 !
b1001 0
b1001 $
b1001 .
b1001 8
b1001 D
b1000 "
b1000 /
b1000 %
b1000 -
b1000 7
b1000 F
#93500000000
0+
#94000000000
1+
#94010000000
b111 "
b111 /
b111 %
b111 -
b111 7
b111 F
b1000 !
b1000 0
b1000 $
b1000 .
b1000 8
b1000 D
#94500000000
0+
#95000000000
1+
#95010000000
b111 !
b111 0
b111 $
b111 .
b111 8
b111 D
b110 "
b110 /
b110 %
b110 -
b110 7
b110 F
#95500000000
0+
#96000000000
1+
#96010000000
b101 "
b101 /
b101 %
b101 -
b101 7
b101 F
b110 !
b110 0
b110 $
b110 .
b110 8
b110 D
#96500000000
0+
#97000000000
1+
#97010000000
b101 !
b101 0
b101 $
b101 .
b101 8
b101 D
b100 "
b100 /
b100 %
b100 -
b100 7
b100 F
#97500000000
0+
#98000000000
1+
#98010000000
b11 "
b11 /
b11 %
b11 -
b11 7
b11 F
b100 !
b100 0
b100 $
b100 .
b100 8
b100 D
#98500000000
0+
#99000000000
1+
#99010000000
b11 !
b11 0
b11 $
b11 .
b11 8
b11 D
b10 "
b10 /
b10 %
b10 -
b10 7
b10 F
#99500000000
0+
#100000000000
1+
#100010000000
b1 "
b1 /
b1 %
b1 -
b1 7
b1 F
b10 !
b10 0
b10 $
b10 .
b10 8
b10 D
#100500000000
0+
#101000000000
1+
#101010000000
b1 !
b1 0
b1 $
b1 .
b1 8
b1 D
b0 "
b0 /
b0 %
b0 -
b0 7
b0 F
#101500000000
0+
#102000000000
1+
#102010000000
b1001 "
b1001 /
b1001 %
b1001 -
b1001 7
b1001 F
b0 !
b0 0
b0 $
b0 .
b0 8
b0 D
#102500000000
0+
#103000000000
1+
#103010000000
b1001 !
b1001 0
b1001 $
b1001 .
b1001 8
b1001 D
b1000 "
b1000 /
b1000 %
b1000 -
b1000 7
b1000 F
#103500000000
0+
#104000000000
1+
#104010000000
b111 "
b111 /
b111 %
b111 -
b111 7
b111 F
b1000 !
b1000 0
b1000 $
b1000 .
b1000 8
b1000 D
#104500000000
0+
#105000000000
1+
#105010000000
b111 !
b111 0
b111 $
b111 .
b111 8
b111 D
b110 "
b110 /
b110 %
b110 -
b110 7
b110 F
#105500000000
0+
#106000000000
1+
#106010000000
b101 "
b101 /
b101 %
b101 -
b101 7
b101 F
b110 !
b110 0
b110 $
b110 .
b110 8
b110 D
#106500000000
0+
#107000000000
1+
#107010000000
b101 !
b101 0
b101 $
b101 .
b101 8
b101 D
b100 "
b100 /
b100 %
b100 -
b100 7
b100 F
#107500000000
0+
#108000000000
1+
#108010000000
b11 "
b11 /
b11 %
b11 -
b11 7
b11 F
b100 !
b100 0
b100 $
b100 .
b100 8
b100 D
#108500000000
0+
#109000000000
1+
#109010000000
b11 !
b11 0
b11 $
b11 .
b11 8
b11 D
b10 "
b10 /
b10 %
b10 -
b10 7
b10 F
#109500000000
0+
#110000000000
1+
#110010000000
b1 "
b1 /
b1 %
b1 -
b1 7
b1 F
b10 !
b10 0
b10 $
b10 .
b10 8
b10 D
#110500000000
0+
#111000000000
1+
#111010000000
b1 !
b1 0
b1 $
b1 .
b1 8
b1 D
b0 "
b0 /
b0 %
b0 -
b0 7
b0 F
#111500000000
0+
#112000000000
1+
#112010000000
b1001 "
b1001 /
b1001 %
b1001 -
b1001 7
b1001 F
b0 !
b0 0
b0 $
b0 .
b0 8
b0 D
#112500000000
0+
#113000000000
1+
#113010000000
b1001 !
b1001 0
b1001 $
b1001 .
b1001 8
b1001 D
b1000 "
b1000 /
b1000 %
b1000 -
b1000 7
b1000 F
#113500000000
0+
#114000000000
1+
#114010000000
b111 "
b111 /
b111 %
b111 -
b111 7
b111 F
b1000 !
b1000 0
b1000 $
b1000 .
b1000 8
b1000 D
#114500000000
0+
#115000000000
1+
#115010000000
b111 !
b111 0
b111 $
b111 .
b111 8
b111 D
b110 "
b110 /
b110 %
b110 -
b110 7
b110 F
#115500000000
0+
#116000000000
1+
#116010000000
b101 "
b101 /
b101 %
b101 -
b101 7
b101 F
b110 !
b110 0
b110 $
b110 .
b110 8
b110 D
#116500000000
0+
#117000000000
1+
#117010000000
b101 !
b101 0
b101 $
b101 .
b101 8
b101 D
b100 "
b100 /
b100 %
b100 -
b100 7
b100 F
#117500000000
0+
#118000000000
1+
#118010000000
b11 "
b11 /
b11 %
b11 -
b11 7
b11 F
b100 !
b100 0
b100 $
b100 .
b100 8
b100 D
#118500000000
0+
#119000000000
1+
#119010000000
b11 !
b11 0
b11 $
b11 .
b11 8
b11 D
b10 "
b10 /
b10 %
b10 -
b10 7
b10 F
#119500000000
0+
#120000000000
1+
#120010000000
b1 "
b1 /
b1 %
b1 -
b1 7
b1 F
b10 !
b10 0
b10 $
b10 .
b10 8
b10 D
#120500000000
0+
#121000000000
1+
#121010000000
b1 !
b1 0
b1 $
b1 .
b1 8
b1 D
b0 "
b0 /
b0 %
b0 -
b0 7
b0 F
#121500000000
0+
#122000000000
1+
#122010000000
b1001 "
b1001 /
b1001 %
b1001 -
b1001 7
b1001 F
b0 !
b0 0
b0 $
b0 .
b0 8
b0 D
#122500000000
0+
#123000000000
1+
#123010000000
b1001 !
b1001 0
b1001 $
b1001 .
b1001 8
b1001 D
b1000 "
b1000 /
b1000 %
b1000 -
b1000 7
b1000 F
#123500000000
0+
#124000000000
1+
#124010000000
b111 "
b111 /
b111 %
b111 -
b111 7
b111 F
b1000 !
b1000 0
b1000 $
b1000 .
b1000 8
b1000 D
#124500000000
0+
#125000000000
1+
#125010000000
b111 !
b111 0
b111 $
b111 .
b111 8
b111 D
b110 "
b110 /
b110 %
b110 -
b110 7
b110 F
#125500000000
0+
#126000000000
1+
#126010000000
b101 "
b101 /
b101 %
b101 -
b101 7
b101 F
b110 !
b110 0
b110 $
b110 .
b110 8
b110 D
#126500000000
0+
#127000000000
1+
#127010000000
b101 !
b101 0
b101 $
b101 .
b101 8
b101 D
b100 "
b100 /
b100 %
b100 -
b100 7
b100 F
#127500000000
0+
#128000000000
1+
#128010000000
b11 "
b11 /
b11 %
b11 -
b11 7
b11 F
b100 !
b100 0
b100 $
b100 .
b100 8
b100 D
#128500000000
0+
#129000000000
1+
#129010000000
b11 !
b11 0
b11 $
b11 .
b11 8
b11 D
b10 "
b10 /
b10 %
b10 -
b10 7
b10 F
#129500000000
0+
#130000000000
1+
#130010000000
b1 "
b1 /
b1 %
b1 -
b1 7
b1 F
b10 !
b10 0
b10 $
b10 .
b10 8
b10 D
#130500000000
0+
#131000000000
1+
#131010000000
b1 !
b1 0
b1 $
b1 .
b1 8
b1 D
b0 "
b0 /
b0 %
b0 -
b0 7
b0 F
#131500000000
0+
#132000000000
1+
#132010000000
b1001 "
b1001 /
b1001 %
b1001 -
b1001 7
b1001 F
b0 !
b0 0
b0 $
b0 .
b0 8
b0 D
#132500000000
0+
#133000000000
1+
#133010000000
b1001 !
b1001 0
b1001 $
b1001 .
b1001 8
b1001 D
b1000 "
b1000 /
b1000 %
b1000 -
b1000 7
b1000 F
#133500000000
0+
#134000000000
1+
#134010000000
b111 "
b111 /
b111 %
b111 -
b111 7
b111 F
b1000 !
b1000 0
b1000 $
b1000 .
b1000 8
b1000 D
#134500000000
0+
#135000000000
1+
#135010000000
b111 !
b111 0
b111 $
b111 .
b111 8
b111 D
b110 "
b110 /
b110 %
b110 -
b110 7
b110 F
#135500000000
0+
#136000000000
1+
#136010000000
b101 "
b101 /
b101 %
b101 -
b101 7
b101 F
b110 !
b110 0
b110 $
b110 .
b110 8
b110 D
#136500000000
0+
#137000000000
1+
#137010000000
b101 !
b101 0
b101 $
b101 .
b101 8
b101 D
b100 "
b100 /
b100 %
b100 -
b100 7
b100 F
#137500000000
0+
#138000000000
1+
#138010000000
b11 "
b11 /
b11 %
b11 -
b11 7
b11 F
b100 !
b100 0
b100 $
b100 .
b100 8
b100 D
#138500000000
0+
#139000000000
1+
#139010000000
b11 !
b11 0
b11 $
b11 .
b11 8
b11 D
b10 "
b10 /
b10 %
b10 -
b10 7
b10 F
#139500000000
0+
#140000000000
1+
#140010000000
b1 "
b1 /
b1 %
b1 -
b1 7
b1 F
b10 !
b10 0
b10 $
b10 .
b10 8
b10 D
#140500000000
0+
#141000000000
1+
#141010000000
b1 !
b1 0
b1 $
b1 .
b1 8
b1 D
b0 "
b0 /
b0 %
b0 -
b0 7
b0 F
#141500000000
0+
#142000000000
1+
#142010000000
b1001 "
b1001 /
b1001 %
b1001 -
b1001 7
b1001 F
b0 !
b0 0
b0 $
b0 .
b0 8
b0 D
#142500000000
0+
#143000000000
1+
#143010000000
b1001 !
b1001 0
b1001 $
b1001 .
b1001 8
b1001 D
b1000 "
b1000 /
b1000 %
b1000 -
b1000 7
b1000 F
#143500000000
0+
#144000000000
1+
#144010000000
b111 "
b111 /
b111 %
b111 -
b111 7
b111 F
b1000 !
b1000 0
b1000 $
b1000 .
b1000 8
b1000 D
#144500000000
0+
#145000000000
1+
#145010000000
b111 !
b111 0
b111 $
b111 .
b111 8
b111 D
b110 "
b110 /
b110 %
b110 -
b110 7
b110 F
#145500000000
0+
#146000000000
1+
#146010000000
b101 "
b101 /
b101 %
b101 -
b101 7
b101 F
b110 !
b110 0
b110 $
b110 .
b110 8
b110 D
#146500000000
0+
#147000000000
1+
#147010000000
b101 !
b101 0
b101 $
b101 .
b101 8
b101 D
b100 "
b100 /
b100 %
b100 -
b100 7
b100 F
#147500000000
0+
#148000000000
1+
#148010000000
b11 "
b11 /
b11 %
b11 -
b11 7
b11 F
b100 !
b100 0
b100 $
b100 .
b100 8
b100 D
#148500000000
0+
#149000000000
1+
#149010000000
b11 !
b11 0
b11 $
b11 .
b11 8
b11 D
b10 "
b10 /
b10 %
b10 -
b10 7
b10 F
#149500000000
0+
#150000000000
1+
#150010000000
b1 "
b1 /
b1 %
b1 -
b1 7
b1 F
b10 !
b10 0
b10 $
b10 .
b10 8
b10 D
#150500000000
0+
#151000000000
1+
#151010000000
b1 !
b1 0
b1 $
b1 .
b1 8
b1 D
b0 "
b0 /
b0 %
b0 -
b0 7
b0 F
#151500000000
0+
#152000000000
1+
#152010000000
b1001 "
b1001 /
b1001 %
b1001 -
b1001 7
b1001 F
b0 !
b0 0
b0 $
b0 .
b0 8
b0 D
#152500000000
0+
#153000000000
1+
#153010000000
b1001 !
b1001 0
b1001 $
b1001 .
b1001 8
b1001 D
b1000 "
b1000 /
b1000 %
b1000 -
b1000 7
b1000 F
#153500000000
0+
#154000000000
1+
